^C:\USERS\SIMON\DOCUMENTS\VISUAL STUDIO 2010\PROJECTS\STUGA FLOWLINE OPS\STUGA FLOWLINE OPS\FRMEDITMACHINING.RESX|C:\USERS\SIMON\DOCUMENTS\VISUAL STUDIO 2010\PROJECTS\STUGA FLOWLINE OPS\STUGA FLOWLINE OPS\FRMEDITPROFILES.RESX|C:\USERS\SIMON\DOCUMENTS\VISUAL STUDIO 2010\PROJECTS\STUGA FLOWLINE OPS\STUGA FLOWLINE OPS\FRMENGINEER.RESX|C:\USERS\SIMON\DOCUMENTS\VISUAL STUDIO 2010\PROJECTS\STUGA FLOWLINE OPS\STUGA FLOWLINE OPS\FRMGRIPPER.RESX|C:\USERS\SIMON\DOCUMENTS\VISUAL STUDIO 2010\PROJECTS\STUGA FLOWLINE OPS\STUGA FLOWLINE OPS\FRMMASTER.RESX|C:\USERS\SIMON\DOCUMENTS\VISUAL STUDIO 2010\PROJECTS\STUGA FLOWLINE OPS\STUGA FLOWLINE OPS\FRMPASSWORD.RESX|C:\USERS\SIMON\DOCUMENTS\VISUAL STUDIO 2010\PROJECTS\STUGA FLOWLINE OPS\STUGA FLOWLINE OPS\FRMPIECEGEN.RESX|C:\USERS\SIMON\DOCUMENTS\VISUAL STUDIO 2010\PROJECTS\STUGA FLOWLINE OPS\STUGA FLOWLINE OPS\FRMPREPS.RESX|C:\USERS\SIMON\DOCUMENTS\VISUAL STUDIO 2010\PROJECTS\STUGA FLOWLINE OPS\STUGA FLOWLINE OPS\FRMPROFILE.RESX|C:\USERS\SIMON\DOCUMENTS\VISUAL STUDIO 2010\PROJECTS\STUGA FLOWLINE OPS\STUGA FLOWLINE OPS\FRMSETTINGS.RESX|C:\USERS\SIMON\DOCUMENTS\VISUAL STUDIO 2010\PROJECTS\STUGA FLOWLINE OPS\STUGA FLOWLINE OPS\FRMTESTGEN.RESX|C:\USERS\SIMON\DOCUMENTS\VISUAL STUDIO 2010\PROJECTS\STUGA FLOWLINE OPS\STUGA FLOWLINE OPS\FRMTIMINGS.RESX|C:\USERS\SIMON\DOCUMENTS\VISUAL STUDIO 2010\PROJECTS\STUGA FLOWLINE OPS\STUGA FLOWLINE OPS\MY PROJECT\RESOURCES.RESX
C:\USERS\SIMON\DOCUMENTS\VISUAL STUDIO 2010\PROJECTS\STUGA FLOWLINE OPS\STUGA FLOWLINE OPS\OBJ\RELEASE\STUGA_FLOWLINE_OPS.FRMEDITMACHINING.RESOURCES
C:\USERS\SIMON\DOCUMENTS\VISUAL STUDIO 2010\PROJECTS\STUGA FLOWLINE OPS\STUGA FLOWLINE OPS\OBJ\RELEASE\STUGA_FLOWLINE_OPS.FRMEDITPROFILES.RESOURCES
C:\USERS\SIMON\DOCUMENTS\VISUAL STUDIO 2010\PROJECTS\STUGA FLOWLINE OPS\STUGA FLOWLINE OPS\OBJ\RELEASE\STUGA_FLOWLINE_OPS.FRMENGINEER.RESOURCES
C:\USERS\SIMON\DOCUMENTS\VISUAL STUDIO 2010\PROJECTS\STUGA FLOWLINE OPS\STUGA FLOWLINE OPS\OBJ\RELEASE\STUGA_FLOWLINE_OPS.FRMGRIPPER.RESOURCES
C:\USERS\SIMON\DOCUMENTS\VISUAL STUDIO 2010\PROJECTS\STUGA FLOWLINE OPS\STUGA FLOWLINE OPS\OBJ\RELEASE\STUGA_FLOWLINE_OPS.FRMMASTER.RESOURCES
C:\USERS\SIMON\DOCUMENTS\VISUAL STUDIO 2010\PROJECTS\STUGA FLOWLINE OPS\STUGA FLOWLINE OPS\OBJ\RELEASE\STUGA_FLOWLINE_OPS.FRMPASSWORD.RESOURCES
C:\USERS\SIMON\DOCUMENTS\VISUAL STUDIO 2010\PROJECTS\STUGA FLOWLINE OPS\STUGA FLOWLINE OPS\OBJ\RELEASE\STUGA_FLOWLINE_OPS.FRMPIECEGEN.RESOURCES
C:\USERS\SIMON\DOCUMENTS\VISUAL STUDIO 2010\PROJECTS\STUGA FLOWLINE OPS\STUGA FLOWLINE OPS\OBJ\RELEASE\STUGA_FLOWLINE_OPS.FRMPREPS.RESOURCES
C:\USERS\SIMON\DOCUMENTS\VISUAL STUDIO 2010\PROJECTS\STUGA FLOWLINE OPS\STUGA FLOWLINE OPS\OBJ\RELEASE\STUGA_FLOWLINE_OPS.FRMPROFILE.RESOURCES
C:\USERS\SIMON\DOCUMENTS\VISUAL STUDIO 2010\PROJECTS\STUGA FLOWLINE OPS\STUGA FLOWLINE OPS\OBJ\RELEASE\STUGA_FLOWLINE_OPS.FRMSETTINGS.RESOURCES
C:\USERS\SIMON\DOCUMENTS\VISUAL STUDIO 2010\PROJECTS\STUGA FLOWLINE OPS\STUGA FLOWLINE OPS\OBJ\RELEASE\STUGA_FLOWLINE_OPS.FRMTESTGEN.RESOURCES
C:\USERS\SIMON\DOCUMENTS\VISUAL STUDIO 2010\PROJECTS\STUGA FLOWLINE OPS\STUGA FLOWLINE OPS\OBJ\RELEASE\STUGA_FLOWLINE_OPS.FRMTIMINGS.RESOURCES
C:\USERS\SIMON\DOCUMENTS\VISUAL STUDIO 2010\PROJECTS\STUGA FLOWLINE OPS\STUGA FLOWLINE OPS\OBJ\RELEASE\STUGA_FLOWLINE_OPS.RESOURCES.RESOURCES
